<?xml version="1.0" encoding="UTF-8"?>
<svg width="125.97mm" height="100.54mm" version="1.1" viewBox="0 0 125.97 100.54" xmlns="http://www.w3.org/2000/svg" xmlns:cc="http://creativecommons.org/ns#" xmlns:dc="http://purl.org/dc/elements/1.1/" xmlns:rdf="http://www.w3.org/1999/02/22-rdf-syntax-ns#" xmlns:xlink="http://www.w3.org/1999/xlink">
 <defs>
  <linearGradient id="linearGradient938" x1="255.02" x2="247.58" y1="700.07" y2="160.52" gradientTransform="matrix(.26458 0 0 .26458 13.758 0)" gradientUnits="userSpaceOnUse">
   <stop stop-color="#b3dff6" offset="0"/>
   <stop stop-color="#fff" offset="1"/>
  </linearGradient>
  <linearGradient id="linearGradient948" x1="79.975" x2="31.601" y1="111.74" y2="23.715" gradientTransform="matrix(.72577 0 0 .72577 19.394 26.551)" gradientUnits="userSpaceOnUse">
   <stop stop-color="#aeedc8" offset="0"/>
   <stop stop-color="#fff" offset="1"/>
  </linearGradient>
  <linearGradient id="linearGradient964" x1="62.764" x2="31.601" y1="105.12" y2="23.715" gradientTransform="matrix(.789 0 0 .789 -65.777 128.89)" gradientUnits="userSpaceOnUse">
   <stop stop-color="#fac6b5" offset="0"/>
   <stop stop-color="#fff" offset="1"/>
  </linearGradient>
 </defs>
 <metadata>
  <rdf:RDF>
   <cc:Work rdf:about="">
    <dc:format>image/svg+xml</dc:format>
    <dc:type rdf:resource="http://purl.org/dc/dcmitype/StillImage"/>
    <dc:title/>
   </cc:Work>
  </rdf:RDF>
 </metadata>
 <g transform="translate(-27.923 -54.689)">
  <path d="m49.271 54.72c-0.0584 2.17e-4 -0.11679 7.94e-4 -0.17518 0.0016-9.0406 0.12836-16.278 7.5387-16.192 16.58 0.029 3.0698 0.91454 6.0185 2.4938 8.5471 2.047 3.2776 2.2907 6.8889-0.19757 9.8737-4.7193 5.6611-7.3467 12.871-7.2757 20.391 0.16324 17.273 14.255 31.166 31.528 31.084 2.9793-0.0141 5.9193-0.45192 8.737-1.2838 6.5505-1.9339 13.506-0.5373 18.804 3.7729 5.5424 4.5089 12.562 7.075 19.955 7.0401 17.273-0.0815 31.233-14.107 31.233-31.381l-6e-3 -0.59273c-0.13906-7.3686-2.8493-14.277-7.4234-19.683-5.208-6.1543-12.674-15.598-17.468-22.079-5.8496-7.9077-15.281-12.875-25.686-12.728-4.6901 0.06651-9.2572 1.1815-13.389 3.2105-5.3074 2.6065-7.8234 1.0225-10.584-4.1477-2.9595-5.5425-8.7657-8.3159-14.354-8.6058z" fill="url(#linearGradient938)" style="paint-order:markers fill stroke"/>
  <g transform="rotate(-49.591 111.86 7.2983)">
   <g stroke-dashoffset="531.55" stroke-linejoin="round">
    <path transform="scale(.26458)" d="m179.88 249.75c1.6667 3.3333 3.3333 6.6667 5 10h180c-1.6667-3.3333-3.3333-6.6667-5-10h-180z" fill="#f39c1f" stroke-width="2.1213" style="paint-order:markers fill stroke"/>
    <path transform="scale(.26458)" d="m184.88 259.75v20h180v-20h-180z" fill="#fdbc4c" fill-opacity=".99388" stroke-width="3" style="paint-order:markers fill stroke"/>
    <g>
     <path transform="scale(.26458)" d="m184.88 279.75c-1.6667 3.3333-3.3333 6.6667-5 10h180c1.6667-3.3333 3.3333-6.6667 5-10h-180z" fill="#fed287" stroke-width="2.427" style="paint-order:markers fill stroke"/>
     <path d="m47.593 66.08c-1.1339 0.37798-14.741 4.9137-15.875 5.2917 0 0 15.875 5.2917 15.875 5.2917 0.44097-0.88194 0.88194-1.7639 1.3229-2.6458v-5.2917c-0.44097-0.88194-0.88194-1.7639-1.3229-2.6458z" fill="#f47750" stroke-width=".79375" style="paint-order:markers fill stroke"/>
     <path transform="scale(.26458)" d="m134.88 264.75-15 5 15 5v-10z" fill="#232629" stroke-width="3" style="paint-order:markers fill stroke"/>
    </g>
    <path d="m48.916 68.726-17.198 2.6458c-2.6458 0.88194 18.521-6.1736 15.875-5.2917 0.44097 0.88194 0.88194 1.7639 1.3229 2.6458z" fill-opacity=".088887" stroke-width=".79375" style="paint-order:markers fill stroke"/>
    <path d="m48.916 74.017s-17.198-2.6458-17.198-2.6458 15.875 5.2917 15.875 5.2917c0.44097-0.88194 0.88194-1.7639 1.3229-2.6458z" fill="#fff" fill-opacity=".12051" stroke-width=".79375" style="paint-order:markers fill stroke"/>
   </g>
  </g>
  <g>
   <text x="38.684948" y="112.10148" fill="#374a5c" font-family="sans-serif" font-size="13.573px" letter-spacing="0px" stroke-width=".33933" word-spacing="0px" style="line-height:1.25" xml:space="preserve"><tspan x="38.684948" y="112.10148" fill="#374a5c" font-family="FreeMono" font-weight="bold" stroke-width=".33933">Klasse:</tspan></text>
   <path d="m87.086 76.448a21.759 21.759 0 0 1-21.657 21.759 21.759 21.759 0 0 1-21.861-21.553 21.759 21.759 0 0 1 21.45-21.963 21.759 21.759 0 0 1 22.064 21.346" fill="url(#linearGradient948)" style="paint-order:markers fill stroke"/>
   <path transform="rotate(-49.237)" d="m7.8108 183.14a23.655 23.655 0 0 1-23.543 23.655 23.655 23.655 0 0 1-23.766-23.431 23.655 23.655 0 0 1 23.318-23.876 23.655 23.655 0 0 1 23.986 23.205" fill="url(#linearGradient964)" style="paint-order:markers fill stroke"/>
  </g>
  <path d="m108.7 109.86s-3.2423-3.8631-5.3522-3.5268c-1.9861 0.31649-1.7639 4.4498-3.7566 4.7213-1.9129 0.2606-4.687-3.4023-4.687-3.4023" fill="none" stroke="#2c3e50" stroke-dashoffset="531.55" stroke-linecap="round" stroke-linejoin="round" stroke-width="1.094" style="paint-order:markers fill stroke"/>
 </g>
</svg>
