<?xml version="1.0" encoding="UTF-8"?>
<svg width="48" height="48" version="1.1" xmlns="http://www.w3.org/2000/svg" xmlns:cc="http://creativecommons.org/ns#" xmlns:dc="http://purl.org/dc/elements/1.1/" xmlns:rdf="http://www.w3.org/1999/02/22-rdf-syntax-ns#" xmlns:xlink="http://www.w3.org/1999/xlink">
 <g>
  <path d="m24.15 0a23.922 24 0 0 0-0.41211 0.0019531 23.922 24 0 0 0-23.58 24.225 23.922 24 0 0 0 24.033 23.773h0.066406a23.922 24 0 0 0 23.742-24l-0.003906-0.45312a23.922 24 0 0 0-23.846-23.547z" fill="url(#linearGradient5001)" stroke-dashoffset="531.55" stroke-linejoin="round" stroke-width="3" style="paint-order:markers fill stroke"/>
  <path d="m32.502 1.5371 0.64258 2.4004-26.896 7.207-0.64062-2.3926a23.922 24 0 0 0-3.8867 6.7109l2.4062-0.64453 7.207 26.896-2.6016 0.69726a23.922 24 0 0 0 3.1797 2.252l0.19922-0.052734 0.052734 0.19922a23.922 24 0 0 0 3.5527 1.6758l-0.70898-2.6504 26.896-7.207 0.6875 2.5684a23.922 24 0 0 0 2.2344-3.252l-0.025391-0.091796 0.091797-0.025391a23.922 24 0 0 0 1.6367-3.543l-2.5039 0.66992-7.207-26.896 2.3965-0.64258a23.922 24 0 0 0-6.7129-3.8789zm1.418 5.2988 7.207 26.896-26.896 7.2051-7.2051-26.896 26.895-7.2051z" color="#000000" color-rendering="auto" dominant-baseline="auto" fill="url(#linearGradient2469)" image-rendering="auto" shape-rendering="auto" solid-color="#000000" stop-color="#000000" style="font-feature-settings:normal;font-variant-alternates:normal;font-variant-caps:normal;font-variant-east-asian:normal;font-variant-ligatures:normal;font-variant-numeric:normal;font-variant-position:normal;font-variation-settings:normal;inline-size:0;isolation:auto;mix-blend-mode:normal;paint-order:markers fill stroke;shape-margin:0;shape-padding:0;text-decoration-color:#000000;text-decoration-line:none;text-decoration-style:solid;text-indent:0;text-orientation:mixed;text-transform:none;white-space:normal"/>
  <path d="m29.102 11.504-1.9473 5.6797-5.0098-5.0098-1.582 4.8223-3.2441-3.4512c-5.256-0.52483-7.2235 7.3538-8.5918 16.764l-0.060547 1.0918 16.6 16.6h22.734v-23.004l-8.6875-8.6875-2.8145-0.04883-0.08789-0.0059-2.8789-2.8789-1.5098 1.0488z" fill="url(#linearGradient4973)" opacity=".2" style="paint-order:markers fill stroke"/>
 </g>
 <metadata>
  <rdf:RDF>
   <cc:Work rdf:about="">
    <dc:format>image/svg+xml</dc:format>
    <dc:type rdf:resource="http://purl.org/dc/dcmitype/StillImage"/>
    <dc:title/>
   </cc:Work>
  </rdf:RDF>
 </metadata>
 <defs>
  <linearGradient id="linearGradient2469" x1="24.024" x2="24.024" y1="48" y2="-.074379" gradientTransform="translate(.076034 -.11412)" gradientUnits="userSpaceOnUse">
   <stop stop-color="#eff0f1" offset="0"/>
   <stop stop-color="#fcfcfc" offset="1"/>
  </linearGradient>
  <linearGradient id="linearGradient4973" x1="26.243" x2="37.751" y1="20.613" y2="39.665" gradientUnits="userSpaceOnUse">
   <stop stop-color="#31363b" offset="0"/>
   <stop stop-color="#31363b" stop-opacity="0" offset="1"/>
  </linearGradient>
  <linearGradient id="linearGradient5001" x1="25.617" x2="25.617" y1="62.94" gradientUnits="userSpaceOnUse">
   <stop stop-color="#1d99f3" offset="0"/>
   <stop stop-color="#3daee9" offset="1"/>
  </linearGradient>
 </defs>
 <g transform="translate(-60.953 8.1556)" fill="#31363b">
  <path d="m80.104 13.23c-0.04789 1.1449-1.2625 1.5869-0.7245 2.7596 1.5503 2.3653-0.77362 7.9816 1.2894 8.4336 1.0985 0.15628 3.9821-3.9225 1.4105-3.0149-1.3641-0.03294-0.29464-4.141-0.04169-4.9295 0.24772-0.77224 4.1653-1.5343 4.6937-0.58988 0.03464 0.52593-0.71722 6.3356-0.71594 7.3055 0.0032 2.4576 1.7313 2.2783 1.6345 0.95957-0.62404-8.5055 4.1902-21.464 2.1647-20.8-3.0001 0.98429-0.90505 7.0416-2.6181 9.1032-0.56833 0.56833-4.5681 1.4245-5.3633 0.9653-0.669-0.38624 2.5167-9.13 1.0935-9.5113-2.338-0.62647-2.5979 6.2779-2.8227 9.3185z" style="paint-order:markers fill stroke"/>
  <path d="m91.886 9.4318c-0.71851 3.3245-3.9978 8.6266-2.5815 9.3202 1.174 0.42373 1.5543-2.7738 1.5543-2.7738 0.56281 25.077 21.85-12.484 3.3109-8.8172 0.92332-1.5045 0.45094-2.1162-0.28874-2.2237-1.6221-0.23572-1.6593 2.9412-1.995 4.4945zm4.9858-0.68312c5.1724 0.67806 1.9576 12.946-2.4342 12.948-2.3782 0.0013-2.2275-6.1952-1.2781-9.1114 0.55094-1.6922 1.7487-4.0945 3.7123-3.8371z" style="paint-order:markers fill stroke"/>
  <path d="m78.272 5.3889c-6.7006-6.5887-12.86 14.086-7.8398 18.941 2.259 1.53 3.7329-1.3769 5.2943-2.4565 0.62555 1.8107-2.4879 6.2349-0.33897 6.4797 2.4708 0.2815 3.1371-10.128 2.2853-11.305-0.97013-1.3406-4.6188-1.303-4.6188 0.34559 0 1.2176 4.0502 0.06026 2.3039 1.9742-10.764 9.9761 0.02097-24.394 2.0211-9.5437 0.01053 0.3729 0.56139 1.465 1.0781 1.2651 1.7731-0.68595 0.77401-4.7574-0.18515-5.7005z" style="paint-order:markers fill stroke"/>
 </g>
 <g transform="translate(-60.953 8.1556)" fill="#31363b">
  <path d="m80.104 13.23c-0.04789 1.1449-1.2625 1.5869-0.7245 2.7596 1.5503 2.3653-0.77362 7.9816 1.2894 8.4336 1.0985 0.15628 3.9821-3.9225 1.4105-3.0149-1.3641-0.03294-0.29464-4.141-0.04169-4.9295 0.24772-0.77224 4.1653-1.5343 4.6937-0.58988 0.03464 0.52593-0.71722 6.3356-0.71594 7.3055 0.0032 2.4576 1.7313 2.2783 1.6345 0.95957-0.62404-8.5055 4.1902-21.464 2.1647-20.8-3.0001 0.98429-0.90505 7.0416-2.6181 9.1032-0.56833 0.56833-4.5681 1.4245-5.3633 0.9653-0.669-0.38624 2.5167-9.13 1.0935-9.5113-2.338-0.62647-2.5979 6.2779-2.8227 9.3185z" style="paint-order:markers fill stroke"/>
  <path d="m91.886 9.4318c-0.71851 3.3245-3.9978 8.6266-2.5815 9.3202 1.174 0.42373 1.5543-2.7738 1.5543-2.7738 0.56281 25.077 21.85-12.484 3.3109-8.8172 0.92332-1.5045 0.45094-2.1162-0.28874-2.2237-1.6221-0.23572-1.6593 2.9412-1.995 4.4945zm4.9858-0.68312c5.1724 0.67806 1.9576 12.946-2.4342 12.948-2.3782 0.0013-2.2275-6.1952-1.2781-9.1114 0.55094-1.6922 1.7487-4.0945 3.7123-3.8371z" style="paint-order:markers fill stroke"/>
  <path d="m78.272 5.3889c-6.7006-6.5887-12.86 14.086-7.8398 18.941 2.259 1.53 3.7329-1.3769 5.2943-2.4565 0.62555 1.8107-2.4879 6.2349-0.33897 6.4797 2.4708 0.2815 3.1371-10.128 2.2853-11.305-0.97013-1.3406-4.6188-1.303-4.6188 0.34559 0 1.2176 4.0502 0.06026 2.3039 1.9742-10.764 9.9761 0.02097-24.394 2.0211-9.5437 0.01053 0.3729 0.56139 1.465 1.0781 1.2651 1.7731-0.68595 0.77401-4.7574-0.18515-5.7005z" style="paint-order:markers fill stroke"/>
 </g>
</svg>
